# Exported from Wings 3D 2.1.7
#121 vertices, 209 faces
v 0.50000010 -1.0000000e-7 -1.00000000
v 0.50000010 -0.30901710 -0.95105700
v 0.50000010 -0.58778510 -0.80901700
v 0.50000010 -0.80901710 -0.58778500
v 0.50000010 -0.95105710 -0.30901700
v 0.50000010 -1.00000010 0.0000000e+0
v 0.50000010 -0.95105710 0.30901700
v 0.50000010 -0.80901710 0.58778500
v 0.50000010 -0.58778510 0.80901700
v 0.50000010 -0.30901710 0.95105700
v 0.50000010 -1.0000000e-7 1.00000000
v 0.40000010 -1.0000000e-7 -1.00000000
v 0.40000010 -0.30901710 -0.95105700
v 0.40000010 -0.58778510 -0.80901700
v 0.40000010 -0.80901710 -0.58778500
v 0.40000010 -0.95105710 -0.30901700
v 0.40000010 -1.00000010 0.0000000e+0
v 0.40000010 -0.95105710 0.30901700
v 0.40000010 -0.80901710 0.58778500
v 0.40000010 -0.58778510 0.80901700
v 0.40000010 -0.30901710 0.95105700
v 0.40000010 -1.0000000e-7 1.00000000
v 0.30000010 -1.0000000e-7 -1.00000000
v 0.30000010 -0.30901710 -0.95105700
v 0.30000010 -0.58778510 -0.80901700
v 0.30000010 -0.80901710 -0.58778500
v 0.30000010 -0.95105710 -0.30901700
v 0.30000010 -1.00000010 0.0000000e+0
v 0.30000010 -0.95105710 0.30901700
v 0.30000010 -0.80901710 0.58778500
v 0.30000010 -0.58778510 0.80901700
v 0.30000010 -0.30901710 0.95105700
v 0.30000010 -1.0000000e-7 1.00000000
v 0.20000010 -1.0000000e-7 -1.00000000
v 0.20000010 -0.30901710 -0.95105700
v 0.20000010 -0.58778510 -0.80901700
v 0.20000010 -0.80901710 -0.58778500
v 0.20000010 -0.95105710 -0.30901700
v 0.20000010 -1.00000010 0.0000000e+0
v 0.20000010 -0.95105710 0.30901700
v 0.20000010 -0.80901710 0.58778500
v 0.20000010 -0.58778510 0.80901700
v 0.20000010 -0.30901710 0.95105700
v 0.20000010 -1.0000000e-7 1.00000000
v 0.10000010 -1.0000000e-7 -1.00000000
v 0.10000010 -0.30901710 -0.95105700
v 0.10000010 -0.58778510 -0.80901700
v 0.10000010 -0.80901710 -0.58778500
v 0.10000010 -0.95105710 -0.30901700
v 0.10000010 -1.00000010 0.0000000e+0
v 0.10000010 -0.95105710 0.30901700
v 0.10000010 -0.80901710 0.58778500
v 0.10000010 -0.58778510 0.80901700
v 0.10000010 -0.30901710 0.95105700
v 0.10000010 -1.0000000e-7 1.00000000
v 1.0000000e-7 -1.0000000e-7 -1.00000000
v 1.0000000e-7 -0.30901710 -0.95105700
v 1.0000000e-7 -0.58778510 -0.80901700
v 1.0000000e-7 -0.80901710 -0.58778500
v 1.0000000e-7 -0.95105710 -0.30901700
v 1.0000000e-7 -1.00000010 0.0000000e+0
v 1.0000000e-7 -0.95105710 0.30901700
v 1.0000000e-7 -0.80901710 0.58778500
v 1.0000000e-7 -0.58778510 0.80901700
v 1.0000000e-7 -0.30901710 0.95105700
v 1.0000000e-7 -1.0000000e-7 1.00000000
v -9.9999900e-2 -1.0000000e-7 -1.00000000
v -9.9999900e-2 -0.30901710 -0.95105700
v -9.9999900e-2 -0.58778510 -0.80901700
v -9.9999900e-2 -0.80901710 -0.58778500
v -9.9999900e-2 -0.95105710 -0.30901700
v -9.9999900e-2 -1.00000010 0.0000000e+0
v -9.9999900e-2 -0.95105710 0.30901700
v -9.9999900e-2 -0.80901710 0.58778500
v -9.9999900e-2 -0.58778510 0.80901700
v -9.9999900e-2 -0.30901710 0.95105700
v -9.9999900e-2 -1.0000000e-7 1.00000000
v -0.19999990 -1.0000000e-7 -1.00000000
v -0.19999990 -0.30901710 -0.95105700
v -0.19999990 -0.58778510 -0.80901700
v -0.19999990 -0.80901710 -0.58778500
v -0.19999990 -0.95105710 -0.30901700
v -0.19999990 -1.00000010 0.0000000e+0
v -0.19999990 -0.95105710 0.30901700
v -0.19999990 -0.80901710 0.58778500
v -0.19999990 -0.58778510 0.80901700
v -0.19999990 -0.30901710 0.95105700
v -0.19999990 -1.0000000e-7 1.00000000
v -0.29999990 -1.0000000e-7 -1.00000000
v -0.29999990 -0.30901710 -0.95105700
v -0.29999990 -0.58778510 -0.80901700
v -0.29999990 -0.80901710 -0.58778500
v -0.29999990 -0.95105710 -0.30901700
v -0.29999990 -1.00000010 0.0000000e+0
v -0.29999990 -0.95105710 0.30901700
v -0.29999990 -0.80901710 0.58778500
v -0.29999990 -0.58778510 0.80901700
v -0.29999990 -0.30901710 0.95105700
v -0.29999990 -1.0000000e-7 1.00000000
v -0.39999990 -1.0000000e-7 -1.00000000
v -0.39999990 -0.30901710 -0.95105700
v -0.39999990 -0.58778510 -0.80901700
v -0.39999990 -0.80901710 -0.58778500
v -0.39999990 -0.95105710 -0.30901700
v -0.39999990 -1.00000010 0.0000000e+0
v -0.39999990 -0.95105710 0.30901700
v -0.39999990 -0.80901710 0.58778500
v -0.39999990 -0.58778510 0.80901700
v -0.39999990 -0.30901710 0.95105700
v -0.39999990 -1.0000000e-7 1.00000000
v -0.49999990 -1.0000000e-7 -1.00000000
v -0.49999990 -0.30901710 -0.95105700
v -0.49999990 -0.58778510 -0.80901700
v -0.49999990 -0.80901710 -0.58778500
v -0.49999990 -0.95105710 -0.30901700
v -0.49999990 -1.00000010 0.0000000e+0
v -0.49999990 -0.95105710 0.30901700
v -0.49999990 -0.80901710 0.58778500
v -0.49999990 -0.58778510 0.80901700
v -0.49999990 -0.30901710 0.95105700
v -0.49999990 -1.0000000e-7 1.00000000
g unnamed_object1_default
usemtl default
s 1
f 1// 3// 2//
f 2// 12// 1//
f 2// 13// 12//
f 3// 9// 4//
f 3// 13// 2//
f 3// 14// 13//
f 4// 6// 5//
f 4// 14// 3//
f 4// 15// 14//
f 5// 15// 4//
f 5// 16// 15//
f 6// 4// 8//
f 6// 8// 7//
f 6// 16// 5//
f 6// 17// 16//
f 7// 17// 6//
f 7// 18// 17//
f 8// 4// 9//
f 8// 18// 7//
f 8// 19// 18//
f 9// 3// 11//
f 9// 11// 10//
f 9// 19// 8//
f 9// 20// 19//
f 10// 20// 9//
f 10// 21// 20//
f 11// 3// 1//
f 11// 21// 10//
f 11// 22// 21//
f 13// 23// 12//
f 13// 24// 23//
f 14// 24// 13//
f 14// 25// 24//
f 15// 25// 14//
f 15// 26// 25//
f 16// 26// 15//
f 16// 27// 26//
f 17// 27// 16//
f 17// 28// 27//
f 18// 28// 17//
f 18// 29// 28//
f 19// 29// 18//
f 19// 30// 29//
f 20// 30// 19//
f 20// 31// 30//
f 21// 31// 20//
f 21// 32// 31//
f 22// 32// 21//
f 22// 33// 32//
f 24// 34// 23//
f 24// 35// 34//
f 25// 35// 24//
f 25// 36// 35//
f 26// 36// 25//
f 26// 37// 36//
f 27// 37// 26//
f 27// 38// 37//
f 28// 38// 27//
f 28// 39// 38//
f 29// 39// 28//
f 29// 40// 39//
f 30// 40// 29//
f 30// 41// 40//
f 31// 41// 30//
f 31// 42// 41//
f 32// 42// 31//
f 32// 43// 42//
f 33// 43// 32//
f 33// 44// 43//
f 35// 45// 34//
f 35// 46// 45//
f 36// 46// 35//
f 36// 47// 46//
f 37// 47// 36//
f 37// 48// 47//
f 38// 48// 37//
f 38// 49// 48//
f 39// 49// 38//
f 39// 50// 49//
f 40// 50// 39//
f 40// 51// 50//
f 41// 51// 40//
f 41// 52// 51//
f 42// 52// 41//
f 42// 53// 52//
f 43// 53// 42//
f 43// 54// 53//
f 44// 54// 43//
f 44// 55// 54//
f 46// 56// 45//
f 46// 57// 56//
f 47// 57// 46//
f 47// 58// 57//
f 48// 58// 47//
f 48// 59// 58//
f 49// 59// 48//
f 49// 60// 59//
f 50// 60// 49//
f 50// 61// 60//
f 51// 61// 50//
f 51// 62// 61//
f 52// 62// 51//
f 52// 63// 62//
f 53// 63// 52//
f 53// 64// 63//
f 54// 64// 53//
f 54// 65// 64//
f 55// 65// 54//
f 55// 66// 65//
f 57// 67// 56//
f 57// 68// 67//
f 58// 68// 57//
f 58// 69// 68//
f 59// 69// 58//
f 59// 70// 69//
f 60// 70// 59//
f 60// 71// 70//
f 61// 71// 60//
f 61// 72// 71//
f 62// 72// 61//
f 62// 73// 72//
f 63// 73// 62//
f 63// 74// 73//
f 64// 74// 63//
f 64// 75// 74//
f 65// 75// 64//
f 65// 76// 75//
f 66// 76// 65//
f 66// 77// 76//
f 68// 78// 67//
f 68// 79// 78//
f 69// 79// 68//
f 69// 80// 79//
f 70// 80// 69//
f 70// 81// 80//
f 71// 81// 70//
f 71// 82// 81//
f 72// 82// 71//
f 72// 83// 82//
f 73// 83// 72//
f 73// 84// 83//
f 74// 84// 73//
f 74// 85// 84//
f 75// 85// 74//
f 75// 86// 85//
f 76// 86// 75//
f 76// 87// 86//
f 77// 87// 76//
f 77// 88// 87//
f 79// 89// 78//
f 79// 90// 89//
f 80// 90// 79//
f 80// 91// 90//
f 81// 91// 80//
f 81// 92// 91//
f 82// 92// 81//
f 82// 93// 92//
f 83// 93// 82//
f 83// 94// 93//
f 84// 94// 83//
f 84// 95// 94//
f 85// 95// 84//
f 85// 96// 95//
f 86// 96// 85//
f 86// 97// 96//
f 87// 97// 86//
f 87// 98// 97//
f 88// 98// 87//
f 88// 99// 98//
f 90// 100// 89//
f 90// 101// 100//
f 91// 101// 90//
f 91// 102// 101//
f 92// 102// 91//
f 92// 103// 102//
f 93// 103// 92//
f 93// 104// 103//
f 94// 104// 93//
f 94// 105// 104//
f 95// 105// 94//
f 95// 106// 105//
f 96// 106// 95//
f 96// 107// 106//
f 97// 107// 96//
f 97// 108// 107//
f 98// 108// 97//
f 98// 109// 108//
f 99// 109// 98//
f 99// 110// 109//
f 101// 111// 100//
f 101// 112// 111//
f 102// 112// 101//
f 102// 113// 112//
f 103// 113// 102//
f 103// 114// 113//
f 104// 114// 103//
f 104// 115// 114//
f 105// 115// 104//
f 105// 116// 115//
f 106// 116// 105//
f 106// 117// 116//
f 107// 117// 106//
f 107// 118// 117//
f 108// 118// 107//
f 108// 119// 118//
f 109// 119// 108//
f 109// 120// 119//
f 110// 120// 109//
f 110// 121// 120//
