{
	"Configuration":
	{
		"particleRadius": 0.025,
		"numberOfStepsPerRenderUpdate": 2,
		"density0": 1000,
		"simulationMethod": 4,
		"gravitation": [0,0,0],
		"timeStepSize": 0.0005,
		"cflMethod": 1,
		"cflFactor": 1,
		"cflMaxTimeStepSize": 0.0005,
		"maxIterations": 100,
		"maxError": 0.01,
		"maxIterationsV": 100,
		"maxErrorV": 0.1,
		"stiffness": 50000,
		"exponent": 7,
		"velocityUpdateMethod": 0,
		"enableDivergenceSolver": true,
		"partioAttributes": "density;velocity"
	},
	"Fluid":
	{
		"surfaceTension": 0.2,
		"surfaceTensionMethod": 0,
		"viscosity": 0.01,
		"viscosityMethod": 2
	},
	"FluidBlocks": [
		{
			"denseMode": 0,
			"translation": [0, 0, 0],
			"start": [-0.5, -0.5, -0.5],
			"end": [0.5, 0.5, 0.5],
			"scale": [1, 1, 1]
		}
	]
}



